ClientID,OrderID,Side,Instrument,Price,Size,Status
0,0,1,BP.L,592.9861062376681,3400,new
0,1,0,VOD.L,145.20574313586692,3500,new
0,2,0,BT.L,233.45155639008664,2900,new
0,3,0,VOD.L,146.890546090448,1200,new
0,4,0,BT.L,233.51996665214745,300,new
0,5,1,BT.L,234.34390750105524,4400,new
0,6,0,BT.L,234.9456475570692,4800,new
0,7,0,BP.L,554.1266415351477,4200,new
0,8,1,BT.L,233.50573499774242,4400,new
0,9,0,VOD.L,145.7653628323894,2500,new
1,0,1,BP.L,603.7168462107369,1300,new
1,1,1,VOD.L,144.50045581202403,4600,new
1,2,0,BT.L,229.87166614347674,3400,new
1,3,1,VOD.L,143.76212088051662,700,new
1,4,1,BP.L,596.1324649067751,3600,new
1,5,1,BT.L,237.64875335626385,3300,new
1,6,0,BT.L,218.55179982595078,2200,new
1,7,1,BT.L,218.86700137528572,4300,new
1,8,0,BT.L,232.7541114803972,2100,new
1,9,0,VOD.L,149.19488542617566,3000,new
